%YAML 1.1
%TAG !u! tag:unity3d.com,2011:
--- !u!244 &-8847625499922028966
AudioMixerEffectController:
  m_ObjectHideFlags: 3
  m_CorrespondingSourceObject: {fileID: 0}
  m_PrefabInstance: {fileID: 0}
  m_PrefabAsset: {fileID: 0}
  m_Name: 
  m_EffectID: ebc02ffea937ea44db1998b8487f1857
  m_EffectName: Compressor
  m_MixLevel: 3d6f1af9dfd7c2642be66bcabef3bdf6
  m_Parameters:
  - m_ParameterName: Threshold
    m_GUID: 11da53b189748bc45b74a156cb794da8
  - m_ParameterName: Attack
    m_GUID: 122aa9ae5659f364db07f111c1137e03
  - m_ParameterName: Release
    m_GUID: a46a6a0d472f14b49b5ac6e3788f307c
  - m_ParameterName: Make up gain
    m_GUID: 4529eef4f95bbcf4eb7bef116ef594dc
  m_SendTarget: {fileID: 0}
  m_EnableWetMix: 0
  m_Bypass: 0
--- !u!241 &24100000
AudioMixerController:
  m_ObjectHideFlags: 0
  m_CorrespondingSourceObject: {fileID: 0}
  m_PrefabInstance: {fileID: 0}
  m_PrefabAsset: {fileID: 0}
  m_Name: EngineStarter
  m_OutputGroup: {fileID: 0}
  m_MasterGroup: {fileID: 24300002}
  m_Snapshots:
  - {fileID: 24500006}
  m_StartSnapshot: {fileID: 24500006}
  m_SuspendThreshold: -80
  m_EnableSuspend: 1
  m_UpdateMode: 0
  m_ExposedParameters: []
  m_AudioMixerGroupViews: []
  m_CurrentViewIndex: 0
  m_TargetSnapshot: {fileID: 24500006}
--- !u!243 &24300002
AudioMixerGroupController:
  m_ObjectHideFlags: 0
  m_CorrespondingSourceObject: {fileID: 0}
  m_PrefabInstance: {fileID: 0}
  m_PrefabAsset: {fileID: 0}
  m_Name: Master
  m_AudioMixer: {fileID: 24100000}
  m_GroupID: 373be2c723ebdd44485a3f51304dc3a7
  m_Children: []
  m_Volume: cd32fdb22fc07fd45a61ec81e549226e
  m_Pitch: 3378fc71dddd55f4ea48cb0dfe694356
  m_Send: 00000000000000000000000000000000
  m_Effects:
  - {fileID: 24400004}
  - {fileID: -8847625499922028966}
  m_UserColorIndex: 0
  m_Mute: 0
  m_Solo: 0
  m_BypassEffects: 0
--- !u!244 &24400004
AudioMixerEffectController:
  m_ObjectHideFlags: 3
  m_CorrespondingSourceObject: {fileID: 0}
  m_PrefabInstance: {fileID: 0}
  m_PrefabAsset: {fileID: 0}
  m_Name: 
  m_EffectID: e34b719f94e89c64e9e2c36c9e6db96e
  m_EffectName: Attenuation
  m_MixLevel: f92e5005022946f4ead3c37f11c80258
  m_Parameters: []
  m_SendTarget: {fileID: 0}
  m_EnableWetMix: 0
  m_Bypass: 0
--- !u!245 &24500006
AudioMixerSnapshotController:
  m_ObjectHideFlags: 0
  m_CorrespondingSourceObject: {fileID: 0}
  m_PrefabInstance: {fileID: 0}
  m_PrefabAsset: {fileID: 0}
  m_Name: Snapshot
  m_AudioMixer: {fileID: 24100000}
  m_SnapshotID: e42fc1ba3865c30428ce5683822d2980
  m_FloatValues:
    11da53b189748bc45b74a156cb794da8: -14.7
    cd32fdb22fc07fd45a61ec81e549226e: -41.5
    4529eef4f95bbcf4eb7bef116ef594dc: 5.4
    3b77a51fceacff14abfbdd4d7b82052e: 10
  m_TransitionOverrides: {}
